module alarm-weather

go 1.14

require (
	github.com/faiface/beep v1.0.2
	github.com/hajimehoshi/go-mp3 v0.2.1 // indirect
	github.com/hajimehoshi/oto v0.6.1 // indirect
	github.com/pkg/errors v0.9.1 // indirect
	golang.org/x/exp v0.0.0-20200331195152-e8c3332aa8e5 // indirect
	golang.org/x/image v0.0.0-20200119044424-58c23975cae1 // indirect
	golang.org/x/mobile v0.0.0-20200329125638-4c31acba0007 // indirect
	golang.org/x/sys v0.0.0-20200420163511-1957bb5e6d1f // indirect
)
